﻿## Interface: 11302
## Author: cqwrteur
## Title: ControlPanel Options
## Dependencies: ControlPanel
## LoadOnDemand: 1
## Version: @project-version@

#@no-lib-strip@
Libs\AceDBOptions-3.0\AceDBOptions-3.0.xml
Libs\AceLocale-3.0\AceLocale-3.0.xml
Libs\AceGUI-3.0\AceGUI-3.0.xml
Libs\AceConfig-3.0\AceConfig-3.0.xml
#@end-no-lib-strip@

locale\locale.xml
Init.lua
module\module.xml
Core.lua
